JuliaActuary – Bayesian vs Limited Fluctuation Experience Analysis
…
The original data is over 13 million rows, we will load an already summarized CSV and split it into train and test sets based on the Calendar_Year.

train,test = let
    pth = download("https://raw.githubusercontent.com/JuliaActuary/Learn/master/data/condensed_auto_claims.csv")
    df = CSV.read(pth,DataFrame,normalizenames=true)
    df.p_observed = df.claims ./ df.n

    train = df[df.Calendar_Year .< 2007,:]
    test  = df[df.Calendar_Year .== 2007,:]

    train, test
    
end

(2413×5 DataFrame
  Row │ Calendar_Year  Blind_Model  n      claims  p_observed 
      │ Int64          String7      Int64  Int64   Float64    
──────┼───────────────────────────────────────────────────────
    1 │          2005  K.78          6132      41  0.00668624
    2 │          2005  Q.22         35141     270  0.00768333
    3 │          2005  AR.41        18719     174  0.00929537
    4 │          2006  AR.41        18868     196  0.010388
    5 │          2005  D.20          4573      27  0.00590422
    6 │          2006  D.20          5446      23  0.00422328
    7 │          2006  AJ.129       50803     342  0.00673189
    8 │          2006  AQ.17        44018     263  0.00597483
    9 │          2005  AQ.17        42684     278  0.00651298
   10 │          2005  BW.3         37903     215  0.00567237
   11 │          2006  BW.3         37752     195  0.00516529
  ⋮   │       ⋮             ⋮         ⋮      ⋮         ⋮
 2404 │          2005  CA.5             1       0  0.0
 2405 │          2005  J.5              1       0  0.0
 2406 │          2006  J.5              1       0  0.0
 2407 │          2005  CB.8             1       0  0.0
 2408 │          2005  AQ.1             1       0  0.0
 2409 │          2005  AJ.96            1       0  0.0
 2410 │          2005  AJ.51            1       0  0.0
 2411 │          2006  AJ.51            1       0  0.0
 2412 │          2005  BQ.6             1       0  0.0
 2413 │          2006  BQ.6             1       0  0.0
                                             2392 rows omitted, 1289×5 DataFrame
…
